{
    "page": 2,
    "per_page": 6,
    "total": 1917,
    "total_pages": 320,
    "data": [
        {
            "id": 36,
            "flightName": "AirIndia",
            "Country": "India",
            "Destinations": "90",
            "URL": "https:\/\/en.wikipedia.org\/wiki\/Air_India"
        },
        {
            "id": 40,
            "flightName": "AirIndia",
            "Country": "India",
            "Destinations": "90",
            "URL": "https:\/\/en.wikipedia.org\/wiki\/Air_India"
        },
        {
            "id": 42,
            "flightName": "AirIndia.Raj",
            "Country": "India",
            "Destinations": "98",
            "URL": "https:\/\/en.wikipedia.org\/wiki\/Air_India"
        },
        {
            "id": 49,
            "flightName": "AirIndia",
            "Country": "India",
            "Destinations": "88",
            "URL": "https:\/\/en.wikipedia.org\/wiki\/Air_India"
        },
        {
            "id": 59,
            "flightName": "AirIndia",
            "Country": "India",
            "Destinations": "87",
            "URL": "https:\/\/en.wikipedia.org\/wiki\/Air_India"
        },
        {
            "id": 60,
            "flightName": "AirIndia",
            "Country": "India",
            "Destinations": "87",
            "URL": "https:\/\/en.wikipedia.org\/wiki\/Air_India"
        }
    ],
    "support": {
        "url": "https:\/\/omrbranch.com",
        "text": "For Joining Automation Course, Please Contact-Velmurugan 9944152058"
    }
}